{
  "project_info": {
    "project_number": "582065126279",
    "project_id": "exam-ex1",
    "storage_bucket": "exam-ex1.appspot.com"
  },
  "client": [
    {
      "client_info": {
        "mobilesdk_app_id": "1:582065126279:android:1b83aa7f074b5fd6eef122",
        "android_client_info": {
          "package_name": "com.example.finalex"
        }
      },
      "oauth_client": [
        {
          "client_id": "582065126279-qb6mmgi0sia1dhls44pu5bttb2iiijra.apps.googleusercontent.com",
          "client_type": 3
        }
      ],
      "api_key": [
        {
          "current_key": "AIzaSyCqV7lfn7ElRd2lTvYxP0K0aK6eXknqAP4"
        }
      ],
      "services": {
        "appinvite_service": {
          "other_platform_oauth_client": [
            {
              "client_id": "582065126279-qb6mmgi0sia1dhls44pu5bttb2iiijra.apps.googleusercontent.com",
              "client_type": 3
            }
          ]
        }
      }
    },
    {
      "client_info": {
        "mobilesdk_app_id": "1:582065126279:android:3d6f9102bef4bb7ceef122",
        "android_client_info": {
          "package_name": "com.example.finalexamex"
        }
      },
      "oauth_client": [
        {
          "client_id": "582065126279-qb6mmgi0sia1dhls44pu5bttb2iiijra.apps.googleusercontent.com",
          "client_type": 3
        }
      ],
      "api_key": [
        {
          "current_key": "AIzaSyCqV7lfn7ElRd2lTvYxP0K0aK6eXknqAP4"
        }
      ],
      "services": {
        "appinvite_service": {
          "other_platform_oauth_client": [
            {
              "client_id": "582065126279-qb6mmgi0sia1dhls44pu5bttb2iiijra.apps.googleusercontent.com",
              "client_type": 3
            }
          ]
        }
      }
    }
  ],
  "configuration_version": "1"
}